…
``` r
total_activity_df <- MIMS_comb_df |>
  group_by(seqn, age, sex, education) |>
  summarise(total_activity = sum(min1:min1440, na.rm = TRUE)) 
```

    ## `summarise()` has grouped output by 'seqn', 'age', 'sex'. You can override
    ## using the `.groups` argument.

``` r
total_activity_df
```

    ## # A tibble: 229 × 5
    ## # Groups:   seqn, age, sex [229]
    ##    seqn    age sex   education total_activity
    ##    <chr> <int> <fct> <fct>              <dbl>
    ##  1 62161    22 1     2                  1.11 
    ##  2 62164    44 2     3                  8.77 
    ##  3 62169    21 1     2                 10.7  
    ##  4 62174    80 1     3                  5.42 
    ##  5 62177    51 1     2                 13.3  
    ##  6 62178    80 1     2                  0.167
    ##  7 62180    35 1     3                  1.08 
    ##  8 62184    26 1     2                  1.55 
    ##  9 62189    30 2     3                 17.2  
    ## 10 62199    57 1     3                  0.031
    ## # ℹ 219 more rows
…
